<?xml version="1.0" encoding="utf-8"?>
<!-- Generator: Adobe Illustrator 17.1.0, SVG Export Plug-In . SVG Version: 6.00 Build 0)  -->
<!DOCTYPE svg PUBLIC "-//W3C//DTD SVG 1.1//EN" "http://www.w3.org/Graphics/SVG/1.1/DTD/svg11.dtd">
<svg version="1.1" id="Layer_1" xmlns="http://www.w3.org/2000/svg" xmlns:xlink="http://www.w3.org/1999/xlink" x="0px" y="0px"
	 width="18px" height="11px" viewBox="0 0 18 11" enable-background="new 0 0 18 11" xml:space="preserve">
<g>
	<path fill="#FFFFFF" d="M0.4,0.8c0.5-0.1,1.1-0.2,1.7-0.2c0.7,0,1.4,0.1,2,0.6c0.4,0.4,0.6,0.9,0.6,1.4c0,0.7-0.4,1.4-1.1,1.7v0
		C4.5,4.7,5,5.4,5,6.3c0,0.7-0.2,1.2-0.6,1.5C3.9,8.3,3.1,8.6,1.8,8.6c-0.6,0-1.1,0-1.4-0.1V0.8z M1.9,3.9h0.3c0.5,0,1-0.5,1-1.1
		c0-0.6-0.3-1-0.9-1c-0.2,0-0.3,0-0.4,0V3.9z M1.9,7.4c0.1,0,0.2,0,0.3,0c0.6,0,1.1-0.4,1.1-1.2c0-0.8-0.5-1.2-1.1-1.2H1.9V7.4z"/>
	<path fill="#FFFFFF" d="M5.8,0.5h1.5v8.1H5.8V0.5z"/>
	<path fill="#FFFFFF" d="M12.4,5.7c0,2.4-1.3,3-2.2,3c-1.4,0-2.2-1.1-2.2-2.9c0-2.1,1.1-3,2.2-3C11.6,2.8,12.4,3.9,12.4,5.7z
		 M9.6,5.7c0,1,0.2,1.8,0.7,1.8c0.5,0,0.6-1,0.6-1.8c0-0.8-0.1-1.8-0.6-1.8C9.7,3.9,9.6,4.9,9.6,5.7z"/>
	<path fill="#FFFFFF" d="M17.4,2.9c0,0.5-0.1,1.1-0.1,1.8v3.3c0,1.2-0.2,1.9-0.7,2.3c-0.4,0.4-1,0.6-1.9,0.6c-0.5,0-1-0.1-1.4-0.3
		l0.3-1.2c0.3,0.1,0.7,0.2,1.1,0.2c0.8,0,1.1-0.5,1.1-1.4V8h0c-0.2,0.4-0.6,0.6-1,0.6c-1.3,0-1.8-1.4-1.8-2.8c0-1.9,0.9-3,1.9-3
		c0.5,0,0.8,0.2,1.1,0.7h0l0.1-0.6H17.4z M15.8,4.9c0-0.2,0-0.3-0.1-0.4C15.7,4.3,15.5,4,15.3,4c-0.5,0-0.8,0.7-0.8,1.7
		c0,1.1,0.3,1.6,0.7,1.6c0.2,0,0.4-0.1,0.5-0.4c0-0.1,0.1-0.3,0.1-0.5V4.9z"/>
</g>
</svg>
