<?xml version="1.0" encoding="utf-8"?>
<!-- Generator: Adobe Illustrator 17.1.0, SVG Export Plug-In . SVG Version: 6.00 Build 0)  -->
<!DOCTYPE svg PUBLIC "-//W3C//DTD SVG 1.1//EN" "http://www.w3.org/Graphics/SVG/1.1/DTD/svg11.dtd">
<svg version="1.1" id="Layer_1" xmlns="http://www.w3.org/2000/svg" xmlns:xlink="http://www.w3.org/1999/xlink" x="0px" y="0px"
	 width="20px" height="17px" viewBox="0 0 20 17" enable-background="new 0 0 20 17" xml:space="preserve">
<g>
	<path fill="#FFFFFF" d="M8.6,1.1c0.5,0.4,1.5,1.3,1.5,2.9c0,1.6-0.9,2.3-1.8,3C8,7.3,7.7,7.6,7.7,8.1C7.7,8.6,8,8.8,8.3,9l0.8,0.6
		c1,0.8,1.8,1.5,1.8,3c0,2-2,4.1-5.7,4.1c-3.2,0-4.7-1.5-4.7-3.1c0-0.8,0.4-1.9,1.7-2.6c1.4-0.8,3.2-0.9,4.2-1
		C6,9.6,5.7,9.2,5.7,8.5c0-0.4,0.1-0.6,0.2-0.8c-0.2,0-0.5,0-0.7,0c-2.3,0-3.6-1.7-3.6-3.4c0-1,0.5-2.1,1.4-2.9
		c1.2-1,2.7-1.2,3.9-1.2h4.5L10,1.1H8.6z M7.1,10.6c-0.2,0-0.3,0-0.5,0c-0.2,0-1.4,0-2.3,0.3c-0.5,0.2-1.9,0.7-1.9,2.2
		s1.5,2.6,3.8,2.6c2.1,0,3.2-1,3.2-2.3C9.4,12.4,8.7,11.8,7.1,10.6 M7.7,6.5C8.2,6.1,8.2,5.4,8.2,5C8.2,3.4,7.3,1,5.5,1
		C4.9,1,4.3,1.3,4,1.7c-0.4,0.5-0.5,1-0.5,1.6c0,1.4,0.9,3.8,2.7,3.8C6.8,7.2,7.3,6.9,7.7,6.5"/>
	<polygon fill="#FFFFFF" points="19.5,3.7 16.2,3.7 16.2,0.3 15.4,0.3 15.4,3.7 12.1,3.7 12.1,4.4 15.4,4.4 15.4,7.9 16.2,7.9 
		16.2,4.4 19.5,4.4 	"/>
</g>
</svg>
