<?xml version="1.0" encoding="utf-8"?>
<!-- Generator: Adobe Illustrator 17.1.0, SVG Export Plug-In . SVG Version: 6.00 Build 0)  -->
<!DOCTYPE svg PUBLIC "-//W3C//DTD SVG 1.1//EN" "http://www.w3.org/Graphics/SVG/1.1/DTD/svg11.dtd">
<svg version="1.1" id="Layer_1" xmlns="http://www.w3.org/2000/svg" xmlns:xlink="http://www.w3.org/1999/xlink" x="0px" y="0px"
	 width="14px" height="17px" viewBox="0 0 14 17" enable-background="new 0 0 14 17" xml:space="preserve">
<g>
	<g id="XMLID_2_">
		<g>
			<path fill="#FFFFFF" d="M13.6,8.8c0.3,1,0.3,2.1,0.3,3.2c0,1.1,0,2.2-0.3,3.2c-0.2,0.7-0.8,1.3-1.5,1.3c-1.7,0.2-3.4,0.2-5.1,0.2
				s-3.4,0-5.1-0.2c-0.7-0.1-1.3-0.6-1.5-1.3c-0.3-1-0.3-2.2-0.3-3.2c0-1.1,0-2.2,0.3-3.2c0.2-0.7,0.8-1.3,1.5-1.3
				C3.6,7.2,5.3,7.2,7,7.2s3.4,0,5.1,0.2C12.8,7.5,13.4,8.1,13.6,8.8z M12.9,13.9c0-0.1,0-0.3,0-0.5v-0.1H12c0,0.3,0,0.5,0,0.6
				c-0.1,0.2-0.2,0.3-0.4,0.3c-0.3,0-0.4-0.2-0.4-0.6v-0.8h1.7l-0.1-0.9c0-0.5-0.1-0.8-0.3-1.1c-0.3-0.3-0.6-0.4-1-0.4
				c-0.4,0-0.8,0.1-1,0.4c-0.2,0.3-0.3,0.6-0.3,1.1v1.6c0,0.5,0.1,0.8,0.3,1.1c0.3,0.3,0.6,0.4,1,0.4c0.4,0,0.8-0.2,1-0.5
				C12.8,14.3,12.9,14.1,12.9,13.9z M9.7,13.5v-1.8c0-0.4,0-0.7-0.1-0.9c-0.1-0.3-0.3-0.5-0.6-0.5s-0.6,0.2-0.8,0.5v-2H7.3v6.1h0.8
				v-0.4c0.3,0.3,0.6,0.5,0.8,0.5c0.3,0,0.6-0.2,0.6-0.5C9.7,14.2,9.7,13.9,9.7,13.5z M6.6,14.9v-4.5H5.7v3.4
				c-0.2,0.3-0.4,0.4-0.5,0.4C5.1,14.2,5,14.1,5,14c0,0,0-0.1,0-0.3v-3.3H4.2v3.6c0,0.3,0,0.5,0.1,0.7c0.1,0.3,0.3,0.3,0.5,0.3
				c0.3,0,0.6-0.2,1-0.6v0.5L6.6,14.9L6.6,14.9z M4,9.6l0.1-0.8H1.2v0.8h1v5.2H3V9.6H4z"/>
			<path fill="#FFFFFF" d="M12,11.7v0.4h-0.8v-0.4c0-0.4,0.1-0.6,0.4-0.6C11.8,11.1,12,11.2,12,11.7z"/>
			<path fill="#FFFFFF" d="M11.3,1.9v4.6h-0.8V6c-0.3,0.4-0.6,0.6-1,0.6C9.2,6.5,9,6.4,9,6.2C8.9,6.1,8.9,5.8,8.9,5.5V1.9h0.8v3.4
				c0,0.2,0,0.3,0,0.3c0,0.1,0.1,0.2,0.2,0.2c0.2,0,0.3-0.1,0.5-0.4V1.9H11.3z"/>
			<path fill="#FFFFFF" d="M8.9,11.6v1.9c0,0.4-0.1,0.6-0.4,0.6c-0.1,0-0.3-0.1-0.4-0.2v-2.7c0.1-0.1,0.3-0.2,0.4-0.2
				C8.7,11.1,8.8,11.2,8.9,11.6z"/>
			<path fill="#FFFFFF" d="M8.2,3.4V5c0,0.5-0.1,0.8-0.3,1.1C7.7,6.4,7.4,6.5,7,6.5S6.2,6.4,6,6.1C5.9,5.8,5.8,5.5,5.8,5V3.4
				c0-0.5,0.1-0.8,0.3-1.1C6.3,2,6.6,1.9,7,1.9c0.4,0,0.8,0.1,1,0.4C8.1,2.6,8.2,2.9,8.2,3.4z M7.4,5.1V3.2c0-0.4-0.1-0.6-0.4-0.6
				S6.6,2.8,6.6,3.2v1.9c0,0.4,0.1,0.6,0.4,0.6C7.3,5.8,7.4,5.6,7.4,5.1z"/>
			<path fill="#FFFFFF" d="M5.8,0.3L4.6,4v2.5H3.7V4C3.7,3.5,3.5,2.9,3.2,2.1C3,1.5,2.8,0.9,2.6,0.3h1l0.6,2.4l0.6-2.4
				C4.8,0.3,5.8,0.3,5.8,0.3z"/>
		</g>
	</g>
</g>
</svg>
